% $ biblatex auxiliary file $
% $ biblatex bbl format version 2.4 $
% Do not modify the above lines!
%
% This is an auxiliary file used by the 'biblatex' package.
% This file may safely be deleted. It will be recreated by
% biber as required.
%
\begingroup
\makeatletter
\@ifundefined{ver@biblatex.sty}
  {\@latex@error
     {Missing 'biblatex' package}
     {The bibliography requires the 'biblatex' package.}
      \aftergroup\endinput}
  {}
\endgroup


\refsection{0}
  \sortlist{nyt}{nyt}
    \entry{Batalha2014}{article}{}
      \name{labelname}{1}{}{%
        {{uniquename=0,hash=2044a6b6eae3fa83971c3c69e419bd93}{Batalha}{B\bibinitperiod}{N.\bibnamedelimi M.}{N\bibinitperiod\bibinitdelim M\bibinitperiod}{}{}{}{}}%
      }
      \name{author}{1}{}{%
        {{uniquename=0,hash=2044a6b6eae3fa83971c3c69e419bd93}{Batalha}{B\bibinitperiod}{N.\bibnamedelimi M.}{N\bibinitperiod\bibinitdelim M\bibinitperiod}{}{}{}{}}%
      }
      \list{language}{1}{%
        {en}%
      }
      \strng{namehash}{2044a6b6eae3fa83971c3c69e419bd93}
      \strng{fullhash}{2044a6b6eae3fa83971c3c69e419bd93}
      \field{sortinit}{B}
      \field{sortinithash}{1a3a21dbed09540af12d49a0b14f4751}
      \field{labelyear}{2014}
      \field{labelmonth}{09}
      \field{datelabelsource}{}
      \field{labeltitle}{{Exploring exoplanet populations with NASA's Kepler Mission}}
      \field{issn}{0027-8424, 1091-6490}
      \field{journaltitle}{Proceedings of the National Academy of Sciences}
      \field{month}{09}
      \field{number}{35}
      \field{title}{{Exploring exoplanet populations with NASA's Kepler Mission}}
      \field{volume}{111}
      \field{year}{2014}
      \field{pages}{12647\bibrangedash 12654}
      \verb{doi}
      \verb 10.1073/pnas.1304196111
      \endverb
      \verb{file}
      \verb :C$\backslash$:/Users/Jack/AppData/Local/Mendeley Ltd./Mendeley Desktop/Downloaded/Batalha - 2014 - Exploring exoplanet populations with NASA's Kepler Mission.pdf:pdf;:C$\backslash$:/Users/Jack/AppData/Local/Mendeley Ltd./Mendeley Desktop/Downloaded/Batalha - 2014 - Exploring exoplanet populations with NASA's Kepler Mission(2).pdf:pdf
      \endverb
      \verb{url}
      \verb http://www.pnas.org/cgi/doi/10.1073/pnas.1304196111
      \endverb
    \endentry
    \entry{Buchhave2014}{article}{}
      \name{labelname}{9}{}{%
        {{uniquename=0,hash=c5f273b673dfa46135a867fae1d57ef9}{Buchhave}{B\bibinitperiod}{Lars\bibnamedelima a}{L\bibinitperiod\bibinitdelim a\bibinitperiod}{}{}{}{}}%
        {{uniquename=0,hash=5c119ed6c59c520fa61f0e39c3fcd3a5}{Bizzarro}{B\bibinitperiod}{Martin}{M\bibinitperiod}{}{}{}{}}%
        {{uniquename=0,hash=cb0580760b497aaa2a77d950c764da08}{Latham}{L\bibinitperiod}{David\bibnamedelima W}{D\bibinitperiod\bibinitdelim W\bibinitperiod}{}{}{}{}}%
        {{uniquename=0,hash=3baa50bb177894ae392fb6700044ec11}{Sasselov}{S\bibinitperiod}{Dimitar}{D\bibinitperiod}{}{}{}{}}%
        {{uniquename=0,hash=fd1e47d8b98084309414a4167b2e7447}{Cochran}{C\bibinitperiod}{William\bibnamedelima D}{W\bibinitperiod\bibinitdelim D\bibinitperiod}{}{}{}{}}%
        {{uniquename=0,hash=c7f8fd4e76db9f3068fd6cb1d18fcca4}{Endl}{E\bibinitperiod}{Michael}{M\bibinitperiod}{}{}{}{}}%
        {{uniquename=0,hash=369ce18d64a4c2ae27c9831a14d47aaa}{Isaacson}{I\bibinitperiod}{Howard}{H\bibinitperiod}{}{}{}{}}%
        {{uniquename=0,hash=791b90f3556fc28c8df47c52a50ca062}{Juncher}{J\bibinitperiod}{Diana}{D\bibinitperiod}{}{}{}{}}%
        {{uniquename=0,hash=bd5539a255cb8d49f1d34c45d3f119ae}{Marcy}{M\bibinitperiod}{Geoffrey\bibnamedelima W}{G\bibinitperiod\bibinitdelim W\bibinitperiod}{}{}{}{}}%
      }
      \name{author}{9}{}{%
        {{uniquename=0,hash=c5f273b673dfa46135a867fae1d57ef9}{Buchhave}{B\bibinitperiod}{Lars\bibnamedelima a}{L\bibinitperiod\bibinitdelim a\bibinitperiod}{}{}{}{}}%
        {{uniquename=0,hash=5c119ed6c59c520fa61f0e39c3fcd3a5}{Bizzarro}{B\bibinitperiod}{Martin}{M\bibinitperiod}{}{}{}{}}%
        {{uniquename=0,hash=cb0580760b497aaa2a77d950c764da08}{Latham}{L\bibinitperiod}{David\bibnamedelima W}{D\bibinitperiod\bibinitdelim W\bibinitperiod}{}{}{}{}}%
        {{uniquename=0,hash=3baa50bb177894ae392fb6700044ec11}{Sasselov}{S\bibinitperiod}{Dimitar}{D\bibinitperiod}{}{}{}{}}%
        {{uniquename=0,hash=fd1e47d8b98084309414a4167b2e7447}{Cochran}{C\bibinitperiod}{William\bibnamedelima D}{W\bibinitperiod\bibinitdelim D\bibinitperiod}{}{}{}{}}%
        {{uniquename=0,hash=c7f8fd4e76db9f3068fd6cb1d18fcca4}{Endl}{E\bibinitperiod}{Michael}{M\bibinitperiod}{}{}{}{}}%
        {{uniquename=0,hash=369ce18d64a4c2ae27c9831a14d47aaa}{Isaacson}{I\bibinitperiod}{Howard}{H\bibinitperiod}{}{}{}{}}%
        {{uniquename=0,hash=791b90f3556fc28c8df47c52a50ca062}{Juncher}{J\bibinitperiod}{Diana}{D\bibinitperiod}{}{}{}{}}%
        {{uniquename=0,hash=bd5539a255cb8d49f1d34c45d3f119ae}{Marcy}{M\bibinitperiod}{Geoffrey\bibnamedelima W}{G\bibinitperiod\bibinitdelim W\bibinitperiod}{}{}{}{}}%
      }
      \list{publisher}{1}{%
        {Nature Publishing Group}%
      }
      \strng{namehash}{c973c4177836e17be017dc8777e7e355}
      \strng{fullhash}{f0b2d977aae2c6cce759e7442e35670e}
      \field{sortinit}{B}
      \field{sortinithash}{1a3a21dbed09540af12d49a0b14f4751}
      \field{labelyear}{2014}
      \field{labelmonth}{05}
      \field{datelabelsource}{}
      \field{labeltitle}{{Three regimes of extrasolar planet radius inferred from host star metallicities.}}
      \field{abstract}{Approximately half of the extrasolar planets (exoplanets) with radii less than four Earth radii are in orbits with short periods. Despite their sheer abundance, the compositions of such planets are largely unknown. The available evidence suggests that they range in composition from small, high-density rocky planets to low-density planets consisting of rocky cores surrounded by thick hydrogen and helium gas envelopes. Here we report the metallicities (that is, the abundances of elements heavier than hydrogen and helium) of more than 400 stars hosting 600 exoplanet candidates, and find that the exoplanets can be categorized into three populations defined by statistically distinct (\x{fffd}\x{fffd}\x{fffd}4.5$\sigma$) metallicity regions. We interpret these regions as reflecting the formation regimes of terrestrial-like planets (radii less than 1.7 Earth radii), gas dwarf planets with rocky cores and hydrogen-helium envelopes (radii between 1.7 and 3.9 Earth radii) and ice or gas giant planets (radii greater than 3.9 Earth radii). These transitions correspond well with those inferred from dynamical mass estimates, implying that host star metallicity, which is a proxy for the initial solids inventory of the protoplanetary disk, is a key ingredient regulating the structure of planetary systems.}
      \field{issn}{1476-4687}
      \field{journaltitle}{Nature}
      \field{month}{05}
      \field{number}{7502}
      \field{title}{{Three regimes of extrasolar planet radius inferred from host star metallicities.}}
      \field{volume}{509}
      \field{year}{2014}
      \field{pages}{593\bibrangedash 5}
      \verb{doi}
      \verb 10.1038/nature13254
      \endverb
      \verb{file}
      \verb :E$\backslash$:/Libraries/Documents/Mendeley Desktop/Buchhave et al. - 2014 - Three regimes of extrasolar planet radius inferred from host star metallicities.pdf:pdf
      \endverb
      \verb{url}
      \verb http://www.pubmedcentral.nih.gov/articlerender.fcgi?artid=4048851%5C&tool=pmcentrez%5C&rendertype=abstract
      \endverb
    \endentry
    \entry{Burrows2014}{article}{}
      \name{labelname}{1}{}{%
        {{uniquename=0,hash=16c966f789b8df1d5514b8e7b1c44737}{Burrows}{B\bibinitperiod}{A.\bibnamedelimi S.}{A\bibinitperiod\bibinitdelim S\bibinitperiod}{}{}{}{}}%
      }
      \name{author}{1}{}{%
        {{uniquename=0,hash=16c966f789b8df1d5514b8e7b1c44737}{Burrows}{B\bibinitperiod}{A.\bibnamedelimi S.}{A\bibinitperiod\bibinitdelim S\bibinitperiod}{}{}{}{}}%
      }
      \list{language}{1}{%
        {en}%
      }
      \strng{namehash}{16c966f789b8df1d5514b8e7b1c44737}
      \strng{fullhash}{16c966f789b8df1d5514b8e7b1c44737}
      \field{sortinit}{B}
      \field{sortinithash}{1a3a21dbed09540af12d49a0b14f4751}
      \field{labelyear}{2014}
      \field{labelmonth}{09}
      \field{datelabelsource}{}
      \field{labeltitle}{{Spectra as windows into exoplanet atmospheres}}
      \field{issn}{0027-8424, 1091-6490}
      \field{journaltitle}{Proceedings of the National Academy of Sciences}
      \field{month}{09}
      \field{number}{35}
      \field{title}{{Spectra as windows into exoplanet atmospheres}}
      \field{volume}{111}
      \field{year}{2014}
      \field{pages}{12601\bibrangedash 12609}
      \verb{doi}
      \verb 10.1073/pnas.1304208111
      \endverb
      \verb{file}
      \verb :C$\backslash$:/Users/Jack/AppData/Local/Mendeley Ltd./Mendeley Desktop/Downloaded/Burrows - 2014 - Spectra as windows into exoplanet atmospheres.pdf:pdf
      \endverb
      \verb{url}
      \verb http://www.pnas.org/cgi/doi/10.1073/pnas.1304208111
      \endverb
    \endentry
    \entry{Charbonneau2005}{article}{}
      \name{labelname}{11}{uniquelist=2}{%
        {{uniquename=0,hash=c3d119b6b7e8e322ea37a6017cdb3555}{Charbonneau}{C\bibinitperiod}{David}{D\bibinitperiod}{}{}{}{}}%
        {{uniquename=0,hash=29d054daa9b4ebb3d5508e2223ee9747}{Allen}{A\bibinitperiod}{Lori\bibnamedelima E.}{L\bibinitperiod\bibinitdelim E\bibinitperiod}{}{}{}{}}%
        {{uniquename=0,hash=24944bd6089745fa16725ec77df2e99d}{Megeath}{M\bibinitperiod}{S.\bibnamedelimi Thomas}{S\bibinitperiod\bibinitdelim T\bibinitperiod}{}{}{}{}}%
        {{uniquename=0,hash=da6e7a32020cd0e9fa2ee3d3908188e9}{Torres}{T\bibinitperiod}{Guillermo}{G\bibinitperiod}{}{}{}{}}%
        {{uniquename=0,hash=439058c35b9e71483d1cfb41de101eb5}{Alonso}{A\bibinitperiod}{Roi}{R\bibinitperiod}{}{}{}{}}%
        {{uniquename=0,hash=99d4b79aa6fd400f950298795e17d900}{Brown}{B\bibinitperiod}{Timothy\bibnamedelima M.}{T\bibinitperiod\bibinitdelim M\bibinitperiod}{}{}{}{}}%
        {{uniquename=0,hash=d9be19cb4d3ccfecbb7c043911ae1798}{Gilliland}{G\bibinitperiod}{Ronald\bibnamedelima L.}{R\bibinitperiod\bibinitdelim L\bibinitperiod}{}{}{}{}}%
        {{uniquename=0,hash=9fc131d2c30acb436dc903166a3db0ca}{Latham}{L\bibinitperiod}{David\bibnamedelima W.}{D\bibinitperiod\bibinitdelim W\bibinitperiod}{}{}{}{}}%
        {{uniquename=0,hash=4a52898deba94f63d7db44ac3965114e}{Mandushev}{M\bibinitperiod}{Georgi}{G\bibinitperiod}{}{}{}{}}%
        {{uniquename=0,hash=b39c6c2edec2c2bb84d071d4c28c3b21}{O\x{fffd}\x{fffd}\x{fffd}Donovan}{O\bibinitperiod}{Francis\bibnamedelima T.}{F\bibinitperiod\bibinitdelim T\bibinitperiod}{}{}{}{}}%
        {{uniquename=0,hash=e1c1d057a19aa353cbf45d5bb1a9b108}{Sozzetti}{S\bibinitperiod}{Alessandro}{A\bibinitperiod}{}{}{}{}}%
      }
      \name{author}{11}{uniquelist=2}{%
        {{uniquename=0,hash=c3d119b6b7e8e322ea37a6017cdb3555}{Charbonneau}{C\bibinitperiod}{David}{D\bibinitperiod}{}{}{}{}}%
        {{uniquename=0,hash=29d054daa9b4ebb3d5508e2223ee9747}{Allen}{A\bibinitperiod}{Lori\bibnamedelima E.}{L\bibinitperiod\bibinitdelim E\bibinitperiod}{}{}{}{}}%
        {{uniquename=0,hash=24944bd6089745fa16725ec77df2e99d}{Megeath}{M\bibinitperiod}{S.\bibnamedelimi Thomas}{S\bibinitperiod\bibinitdelim T\bibinitperiod}{}{}{}{}}%
        {{uniquename=0,hash=da6e7a32020cd0e9fa2ee3d3908188e9}{Torres}{T\bibinitperiod}{Guillermo}{G\bibinitperiod}{}{}{}{}}%
        {{uniquename=0,hash=439058c35b9e71483d1cfb41de101eb5}{Alonso}{A\bibinitperiod}{Roi}{R\bibinitperiod}{}{}{}{}}%
        {{uniquename=0,hash=99d4b79aa6fd400f950298795e17d900}{Brown}{B\bibinitperiod}{Timothy\bibnamedelima M.}{T\bibinitperiod\bibinitdelim M\bibinitperiod}{}{}{}{}}%
        {{uniquename=0,hash=d9be19cb4d3ccfecbb7c043911ae1798}{Gilliland}{G\bibinitperiod}{Ronald\bibnamedelima L.}{R\bibinitperiod\bibinitdelim L\bibinitperiod}{}{}{}{}}%
        {{uniquename=0,hash=9fc131d2c30acb436dc903166a3db0ca}{Latham}{L\bibinitperiod}{David\bibnamedelima W.}{D\bibinitperiod\bibinitdelim W\bibinitperiod}{}{}{}{}}%
        {{uniquename=0,hash=4a52898deba94f63d7db44ac3965114e}{Mandushev}{M\bibinitperiod}{Georgi}{G\bibinitperiod}{}{}{}{}}%
        {{uniquename=0,hash=b39c6c2edec2c2bb84d071d4c28c3b21}{O\x{fffd}\x{fffd}\x{fffd}Donovan}{O\bibinitperiod}{Francis\bibnamedelima T.}{F\bibinitperiod\bibinitdelim T\bibinitperiod}{}{}{}{}}%
        {{uniquename=0,hash=e1c1d057a19aa353cbf45d5bb1a9b108}{Sozzetti}{S\bibinitperiod}{Alessandro}{A\bibinitperiod}{}{}{}{}}%
      }
      \strng{namehash}{707d884c89d3e83ac8c8da744cb77512}
      \strng{fullhash}{f724f2d9de3f4eba5c1feef8c176a640}
      \field{sortinit}{C}
      \field{sortinithash}{dd0e4ddd17488a6ebf12cd6de2f2c237}
      \field{labelyear}{2005}
      \field{labelmonth}{06}
      \field{datelabelsource}{}
      \field{labeltitle}{{Detection of Thermal Emission from an Extrasolar Planet}}
      \field{issn}{0004-637X}
      \field{journaltitle}{The Astrophysical Journal}
      \field{month}{06}
      \field{number}{1}
      \field{title}{{Detection of Thermal Emission from an Extrasolar Planet}}
      \field{volume}{626}
      \field{year}{2005}
      \field{pages}{523\bibrangedash 529}
      \verb{doi}
      \verb 10.1086/429991
      \endverb
      \verb{file}
      \verb :C$\backslash$:/Users/Jack/AppData/Local/Mendeley Ltd./Mendeley Desktop/Downloaded/Charbonneau et al. - 2005 - Detection of Thermal Emission from an Extrasolar Planet.pdf:pdf
      \endverb
      \verb{url}
      \verb http://stacks.iop.org/0004-637X/626/i=1/a=523
      \endverb
    \endentry
    \entry{Charbonneau2002}{article}{}
      \name{labelname}{4}{uniquelist=2}{%
        {{uniquename=0,hash=c3d119b6b7e8e322ea37a6017cdb3555}{Charbonneau}{C\bibinitperiod}{David}{D\bibinitperiod}{}{}{}{}}%
        {{uniquename=0,hash=99d4b79aa6fd400f950298795e17d900}{Brown}{B\bibinitperiod}{Timothy\bibnamedelima M.}{T\bibinitperiod\bibinitdelim M\bibinitperiod}{}{}{}{}}%
        {{uniquename=0,hash=8f9a9309629a5878622bae4103858e1b}{Noyes}{N\bibinitperiod}{Robert\bibnamedelima W.}{R\bibinitperiod\bibinitdelim W\bibinitperiod}{}{}{}{}}%
        {{uniquename=0,hash=d9be19cb4d3ccfecbb7c043911ae1798}{Gilliland}{G\bibinitperiod}{Ronald\bibnamedelima L.}{R\bibinitperiod\bibinitdelim L\bibinitperiod}{}{}{}{}}%
      }
      \name{author}{4}{uniquelist=2}{%
        {{uniquename=0,hash=c3d119b6b7e8e322ea37a6017cdb3555}{Charbonneau}{C\bibinitperiod}{David}{D\bibinitperiod}{}{}{}{}}%
        {{uniquename=0,hash=99d4b79aa6fd400f950298795e17d900}{Brown}{B\bibinitperiod}{Timothy\bibnamedelima M.}{T\bibinitperiod\bibinitdelim M\bibinitperiod}{}{}{}{}}%
        {{uniquename=0,hash=8f9a9309629a5878622bae4103858e1b}{Noyes}{N\bibinitperiod}{Robert\bibnamedelima W.}{R\bibinitperiod\bibinitdelim W\bibinitperiod}{}{}{}{}}%
        {{uniquename=0,hash=d9be19cb4d3ccfecbb7c043911ae1798}{Gilliland}{G\bibinitperiod}{Ronald\bibnamedelima L.}{R\bibinitperiod\bibinitdelim L\bibinitperiod}{}{}{}{}}%
      }
      \strng{namehash}{f0ba85a44f2cefc8edfdfc813db2b820}
      \strng{fullhash}{398cd1a9d517f0336d72bf184e9b3c60}
      \field{sortinit}{C}
      \field{sortinithash}{dd0e4ddd17488a6ebf12cd6de2f2c237}
      \field{labelyear}{2002}
      \field{labelmonth}{03}
      \field{datelabelsource}{}
      \field{labeltitle}{{Detection of an Extrasolar Planet Atmosphere}}
      \field{issn}{0004-637X}
      \field{journaltitle}{The Astrophysical Journal}
      \field{month}{03}
      \field{number}{1}
      \field{title}{{Detection of an Extrasolar Planet Atmosphere}}
      \field{volume}{568}
      \field{year}{2002}
      \field{pages}{377\bibrangedash 384}
      \verb{doi}
      \verb 10.1086/338770
      \endverb
      \verb{url}
      \verb http://stacks.iop.org/0004-637X/568/i=1/a=377
      \endverb
    \endentry
    \entry{Chauvin2004}{article}{}
      \name{labelname}{8}{}{%
        {{uniquename=0,hash=2af88c5bdec4de65471dbe2b9a10054f}{Chauvin}{C\bibinitperiod}{G.}{G\bibinitperiod}{}{}{}{}}%
        {{uniquename=0,hash=487063e02ec78685fe65490d59a63f6b}{Lagrange}{L\bibinitperiod}{A.-M.}{A\bibinithyphendelim M\bibinitperiod}{}{}{}{}}%
        {{uniquename=0,hash=852f0ce2f36adc97c49483aa74c95bd2}{Dumas}{D\bibinitperiod}{C.}{C\bibinitperiod}{}{}{}{}}%
        {{uniquename=0,hash=1e87bf0242652e80f16487ad359eb365}{Zuckerman}{Z\bibinitperiod}{B.}{B\bibinitperiod}{}{}{}{}}%
        {{uniquename=0,hash=dd9426ec1749af41574e166db43e6b36}{Mouillet}{M\bibinitperiod}{D.}{D\bibinitperiod}{}{}{}{}}%
        {{uniquename=0,hash=27591c8a7a43b00e4f944a7a506c5faa}{Song}{S\bibinitperiod}{I.}{I\bibinitperiod}{}{}{}{}}%
        {{uniquename=0,hash=a4f7fe03dd886a88b28cf41b57b3314e}{Beuzit}{B\bibinitperiod}{J.-L.}{J\bibinithyphendelim L\bibinitperiod}{}{}{}{}}%
        {{uniquename=0,hash=735b689b3d6cb3b4f87ce8d42c0ff656}{Lowrance}{L\bibinitperiod}{P.}{P\bibinitperiod}{}{}{}{}}%
      }
      \name{author}{8}{}{%
        {{uniquename=0,hash=2af88c5bdec4de65471dbe2b9a10054f}{Chauvin}{C\bibinitperiod}{G.}{G\bibinitperiod}{}{}{}{}}%
        {{uniquename=0,hash=487063e02ec78685fe65490d59a63f6b}{Lagrange}{L\bibinitperiod}{A.-M.}{A\bibinithyphendelim M\bibinitperiod}{}{}{}{}}%
        {{uniquename=0,hash=852f0ce2f36adc97c49483aa74c95bd2}{Dumas}{D\bibinitperiod}{C.}{C\bibinitperiod}{}{}{}{}}%
        {{uniquename=0,hash=1e87bf0242652e80f16487ad359eb365}{Zuckerman}{Z\bibinitperiod}{B.}{B\bibinitperiod}{}{}{}{}}%
        {{uniquename=0,hash=dd9426ec1749af41574e166db43e6b36}{Mouillet}{M\bibinitperiod}{D.}{D\bibinitperiod}{}{}{}{}}%
        {{uniquename=0,hash=27591c8a7a43b00e4f944a7a506c5faa}{Song}{S\bibinitperiod}{I.}{I\bibinitperiod}{}{}{}{}}%
        {{uniquename=0,hash=a4f7fe03dd886a88b28cf41b57b3314e}{Beuzit}{B\bibinitperiod}{J.-L.}{J\bibinithyphendelim L\bibinitperiod}{}{}{}{}}%
        {{uniquename=0,hash=735b689b3d6cb3b4f87ce8d42c0ff656}{Lowrance}{L\bibinitperiod}{P.}{P\bibinitperiod}{}{}{}{}}%
      }
      \strng{namehash}{f64a6f0989310a6fa6476d499607e01a}
      \strng{fullhash}{af3a9837ca4dec5dd63c28b2d134ccbc}
      \field{sortinit}{C}
      \field{sortinithash}{dd0e4ddd17488a6ebf12cd6de2f2c237}
      \field{labelyear}{2004}
      \field{labelmonth}{10}
      \field{datelabelsource}{}
      \field{labeltitle}{{A giant planet candidate near a young brown dwarf}}
      \field{issn}{0004-6361}
      \field{journaltitle}{Astronomy and Astrophysics}
      \field{month}{10}
      \field{number}{2}
      \field{title}{{A giant planet candidate near a young brown dwarf}}
      \field{volume}{425}
      \field{year}{2004}
      \field{pages}{L29\bibrangedash L32}
      \verb{doi}
      \verb 10.1051/0004-6361:200400056
      \endverb
      \verb{url}
      \verb http://www.edpsciences.org/10.1051/0004-6361:200400056
      \endverb
    \endentry
    \entry{Deming2005}{article}{}
      \name{labelname}{4}{}{%
        {{uniquename=0,hash=10332b321cb674156236a37ef054c39b}{Deming}{D\bibinitperiod}{Drake}{D\bibinitperiod}{}{}{}{}}%
        {{uniquename=0,hash=85533eec9f4b1ee168bba3d0a0607fb5}{Seager}{S\bibinitperiod}{Sara}{S\bibinitperiod}{}{}{}{}}%
        {{uniquename=0,hash=6d15e33dbc9cae79f790f1b02827e898}{Richardson}{R\bibinitperiod}{L\bibnamedelima Jeremy}{L\bibinitperiod\bibinitdelim J\bibinitperiod}{}{}{}{}}%
        {{uniquename=0,hash=e469354cc6ed20924b52439df7606aa2}{Harrington}{H\bibinitperiod}{Joseph}{J\bibinitperiod}{}{}{}{}}%
      }
      \name{author}{4}{}{%
        {{uniquename=0,hash=10332b321cb674156236a37ef054c39b}{Deming}{D\bibinitperiod}{Drake}{D\bibinitperiod}{}{}{}{}}%
        {{uniquename=0,hash=85533eec9f4b1ee168bba3d0a0607fb5}{Seager}{S\bibinitperiod}{Sara}{S\bibinitperiod}{}{}{}{}}%
        {{uniquename=0,hash=6d15e33dbc9cae79f790f1b02827e898}{Richardson}{R\bibinitperiod}{L\bibnamedelima Jeremy}{L\bibinitperiod\bibinitdelim J\bibinitperiod}{}{}{}{}}%
        {{uniquename=0,hash=e469354cc6ed20924b52439df7606aa2}{Harrington}{H\bibinitperiod}{Joseph}{J\bibinitperiod}{}{}{}{}}%
      }
      \strng{namehash}{8f6b2ac74ba79a3faae1646d9aa57460}
      \strng{fullhash}{b4f4e8d26c158e1749edb0b530f8b9a8}
      \field{sortinit}{D}
      \field{sortinithash}{a01c54d1737685bc6dbf0ea0673fa44c}
      \field{labelyear}{2005}
      \field{labelmonth}{04}
      \field{datelabelsource}{}
      \field{labeltitle}{{Infrared radiation from an extrasolar planet.}}
      \field{abstract}{A class of extrasolar giant planets--the so-called 'hot Jupiters' (ref. 1)--orbit within 0.05 au of their primary stars (1 au is the Sun-Earth distance). These planets should be hot and so emit detectable infrared radiation. The planet HD 209458b (refs 3, 4) is an ideal candidate for the detection and characterization of this infrared light because it is eclipsed by the star. This planet has an anomalously large radius (1.35 times that of Jupiter), which may be the result of ongoing tidal dissipation, but this explanation requires a non-zero orbital eccentricity (approximately 0.03; refs 6, 7), maintained by interaction with a hypothetical second planet. Here we report detection of infrared (24 microm) radiation from HD 209458b, by observing the decrement in flux during secondary eclipse, when the planet passes behind the star. The planet's 24-microm flux is 55 +/- 10 microJy (1sigma), with a brightness temperature of 1,130 +/- 150 K, confirming the predicted heating by stellar irradiation. The secondary eclipse occurs at the midpoint between transits of the planet in front of the star (to within +/- 7 min, 1sigma), which means that a dynamically significant orbital eccentricity is unlikely.}
      \field{issn}{1476-4687}
      \field{journaltitle}{Nature}
      \field{month}{04}
      \field{number}{7034}
      \field{title}{{Infrared radiation from an extrasolar planet.}}
      \field{volume}{434}
      \field{year}{2005}
      \field{pages}{740\bibrangedash 3}
      \verb{doi}
      \verb 10.1038/nature03507
      \endverb
      \verb{file}
      \verb :C$\backslash$:/Users/Jack/AppData/Local/Mendeley Ltd./Mendeley Desktop/Downloaded/Deming et al. - 2005 - Infrared radiation from an extrasolar planet.pdf:pdf
      \endverb
      \verb{url}
      \verb http://www.ncbi.nlm.nih.gov/pubmed/15785769
      \endverb
    \endentry
    \entry{Duchene2008}{article}{}
      \name{labelname}{1}{}{%
        {{uniquename=0,hash=fbe99c1338ab6fa130d15e2e56ff34fa}{Duch\^{e}ne}{D\bibinitperiod}{Gaspard}{G\bibinitperiod}{}{}{}{}}%
      }
      \name{author}{1}{}{%
        {{uniquename=0,hash=fbe99c1338ab6fa130d15e2e56ff34fa}{Duch\^{e}ne}{D\bibinitperiod}{Gaspard}{G\bibinitperiod}{}{}{}{}}%
      }
      \strng{namehash}{fbe99c1338ab6fa130d15e2e56ff34fa}
      \strng{fullhash}{fbe99c1338ab6fa130d15e2e56ff34fa}
      \field{sortinit}{D}
      \field{sortinithash}{a01c54d1737685bc6dbf0ea0673fa44c}
      \field{labelyear}{2008}
      \field{labelmonth}{06}
      \field{datelabelsource}{}
      \field{labeltitle}{{High-angular resolution imaging of disks and planets}}
      \field{issn}{13876473}
      \field{journaltitle}{New Astronomy Reviews}
      \field{month}{06}
      \field{number}{2-5}
      \field{title}{{High-angular resolution imaging of disks and planets}}
      \field{volume}{52}
      \field{year}{2008}
      \field{pages}{117\bibrangedash 144}
      \verb{doi}
      \verb 10.1016/j.newar.2008.04.007
      \endverb
      \verb{file}
      \verb :C$\backslash$:/Users/Jack/AppData/Local/Mendeley Ltd./Mendeley Desktop/Downloaded/Duch\^{e}ne - 2008 - High-angular resolution imaging of disks and planets.pdf:pdf
      \endverb
      \verb{url}
      \verb http://linkinghub.elsevier.com/retrieve/pii/S1387647308000377
      \endverb
      \keyw{direct-imaging}
    \endentry
    \entry{Fressin2013}{article}{}
      \name{labelname}{9}{}{%
        {{uniquename=0,hash=c4080f87669618571e5f06e70b5c1643}{Fressin}{F\bibinitperiod}{Fran\c{c}ois}{F\bibinitperiod}{}{}{}{}}%
        {{uniquename=0,hash=da6e7a32020cd0e9fa2ee3d3908188e9}{Torres}{T\bibinitperiod}{Guillermo}{G\bibinitperiod}{}{}{}{}}%
        {{uniquename=0,hash=c3d119b6b7e8e322ea37a6017cdb3555}{Charbonneau}{C\bibinitperiod}{David}{D\bibinitperiod}{}{}{}{}}%
        {{uniquename=0,hash=cf8826887afaeec1b26f836bc6f2dcf8}{Bryson}{B\bibinitperiod}{Stephen\bibnamedelima T.}{S\bibinitperiod\bibinitdelim T\bibinitperiod}{}{}{}{}}%
        {{uniquename=0,hash=1183e5360184830eca215d6b8006840a}{Christiansen}{C\bibinitperiod}{Jessie}{J\bibinitperiod}{}{}{}{}}%
        {{uniquename=0,hash=ff8fad3758faaabe59ad09a3c16e7fdc}{Dressing}{D\bibinitperiod}{Courtney\bibnamedelima D.}{C\bibinitperiod\bibinitdelim D\bibinitperiod}{}{}{}{}}%
        {{uniquename=0,hash=e39cc319fa2497ce86ad3fc9535282ef}{Jenkins}{J\bibinitperiod}{Jon\bibnamedelima M.}{J\bibinitperiod\bibinitdelim M\bibinitperiod}{}{}{}{}}%
        {{uniquename=0,hash=338569afa7c91142927d5ab0f4a947f3}{Walkowicz}{W\bibinitperiod}{Lucianne\bibnamedelima M.}{L\bibinitperiod\bibinitdelim M\bibinitperiod}{}{}{}{}}%
        {{uniquename=0,hash=341e3602b1122a2f2a579c76b87739de}{Batalha}{B\bibinitperiod}{Natalie\bibnamedelima M.}{N\bibinitperiod\bibinitdelim M\bibinitperiod}{}{}{}{}}%
      }
      \name{author}{9}{}{%
        {{uniquename=0,hash=c4080f87669618571e5f06e70b5c1643}{Fressin}{F\bibinitperiod}{Fran\c{c}ois}{F\bibinitperiod}{}{}{}{}}%
        {{uniquename=0,hash=da6e7a32020cd0e9fa2ee3d3908188e9}{Torres}{T\bibinitperiod}{Guillermo}{G\bibinitperiod}{}{}{}{}}%
        {{uniquename=0,hash=c3d119b6b7e8e322ea37a6017cdb3555}{Charbonneau}{C\bibinitperiod}{David}{D\bibinitperiod}{}{}{}{}}%
        {{uniquename=0,hash=cf8826887afaeec1b26f836bc6f2dcf8}{Bryson}{B\bibinitperiod}{Stephen\bibnamedelima T.}{S\bibinitperiod\bibinitdelim T\bibinitperiod}{}{}{}{}}%
        {{uniquename=0,hash=1183e5360184830eca215d6b8006840a}{Christiansen}{C\bibinitperiod}{Jessie}{J\bibinitperiod}{}{}{}{}}%
        {{uniquename=0,hash=ff8fad3758faaabe59ad09a3c16e7fdc}{Dressing}{D\bibinitperiod}{Courtney\bibnamedelima D.}{C\bibinitperiod\bibinitdelim D\bibinitperiod}{}{}{}{}}%
        {{uniquename=0,hash=e39cc319fa2497ce86ad3fc9535282ef}{Jenkins}{J\bibinitperiod}{Jon\bibnamedelima M.}{J\bibinitperiod\bibinitdelim M\bibinitperiod}{}{}{}{}}%
        {{uniquename=0,hash=338569afa7c91142927d5ab0f4a947f3}{Walkowicz}{W\bibinitperiod}{Lucianne\bibnamedelima M.}{L\bibinitperiod\bibinitdelim M\bibinitperiod}{}{}{}{}}%
        {{uniquename=0,hash=341e3602b1122a2f2a579c76b87739de}{Batalha}{B\bibinitperiod}{Natalie\bibnamedelima M.}{N\bibinitperiod\bibinitdelim M\bibinitperiod}{}{}{}{}}%
      }
      \strng{namehash}{709b676256bbaae228c2af066e6e0014}
      \strng{fullhash}{d6a1ce07a9337c6052b8392d989348b7}
      \field{sortinit}{F}
      \field{sortinithash}{9661cce5f16ac30b6b0c804d4583ed99}
      \field{labelyear}{2013}
      \field{labelmonth}{04}
      \field{datelabelsource}{}
      \field{labeltitle}{{THE FALSE POSITIVE RATE OF KEPLER AND THE OCCURRENCE OF PLANETS}}
      \field{issn}{0004-637X}
      \field{journaltitle}{The Astrophysical Journal}
      \field{month}{04}
      \field{number}{2}
      \field{title}{{THE FALSE POSITIVE RATE OF KEPLER AND THE OCCURRENCE OF PLANETS}}
      \field{volume}{766}
      \field{year}{2013}
      \field{pages}{81}
      \verb{doi}
      \verb 10.1088/0004-637X/766/2/81
      \endverb
      \verb{file}
      \verb :E$\backslash$:/Libraries/Documents/Mendeley Desktop/Fressin et al. - 2013 - THE FALSE POSITIVE RATE OF KEPLER AND THE OCCURRENCE OF PLANETS.pdf:pdf
      \endverb
      \verb{url}
      \verb http://stacks.iop.org/0004-637X/766/i=2/a=81?key=crossref.61220c7d574853ef276f8ffca21a3682
      \endverb
      \keyw{binaries,color figures,data analysis,eclipsing,methods,online-only material,planetary systems,statistical}
    \endentry
    \entry{Hinkley2012}{article}{}
      \name{labelname}{1}{}{%
        {{uniquename=0,hash=8e37b3fb583532de983bea667ead5d91}{Hinkley}{H\bibinitperiod}{Sasha}{S\bibinitperiod}{}{}{}{}}%
      }
      \name{author}{1}{}{%
        {{uniquename=0,hash=8e37b3fb583532de983bea667ead5d91}{Hinkley}{H\bibinitperiod}{Sasha}{S\bibinitperiod}{}{}{}{}}%
      }
      \strng{namehash}{8e37b3fb583532de983bea667ead5d91}
      \strng{fullhash}{8e37b3fb583532de983bea667ead5d91}
      \field{sortinit}{H}
      \field{sortinithash}{95b2cb08933fe649b7e9f8beee2132b4}
      \field{labelyear}{2012}
      \field{labelmonth}{04}
      \field{datelabelsource}{}
      \field{labeltitle}{{Adaptive Optics Observations of Exoplanets, Brown Dwarfs, and Binary Stars}}
      \field{issn}{1743-9213}
      \field{journaltitle}{Proceedings of the International Astronomical Union}
      \field{month}{04}
      \field{number}{S282}
      \field{title}{{Adaptive Optics Observations of Exoplanets, Brown Dwarfs, and Binary Stars}}
      \field{volume}{7}
      \field{year}{2012}
      \field{pages}{181\bibrangedash 188}
      \verb{doi}
      \verb 10.1017/S1743921311027293
      \endverb
      \verb{file}
      \verb :C$\backslash$:/Users/Jack/AppData/Local/Mendeley Ltd./Mendeley Desktop/Downloaded/Hinkley - 2012 - Adaptive Optics Observations of Exoplanets, Brown Dwarfs, and Binary Stars.pdf:pdf
      \endverb
      \verb{url}
      \verb http://www.journals.cambridge.org/abstract%5C_S1743921311027293
      \endverb
      \keyw{adaptive optics,direct-imaging,high angular resolution,in-,instrumentation,interferometric,spectrographs,strumentation,techniques}
    \endentry
    \entry{Kalas2011}{article}{}
      \name{labelname}{1}{}{%
        {{uniquename=0,hash=4b43fce1fce51ba365a6678609871e38}{Kalas}{K\bibinitperiod}{Paul}{P\bibinitperiod}{}{}{}{}}%
      }
      \name{author}{1}{}{%
        {{uniquename=0,hash=4b43fce1fce51ba365a6678609871e38}{Kalas}{K\bibinitperiod}{Paul}{P\bibinitperiod}{}{}{}{}}%
      }
      \strng{namehash}{4b43fce1fce51ba365a6678609871e38}
      \strng{fullhash}{4b43fce1fce51ba365a6678609871e38}
      \field{sortinit}{K}
      \field{sortinithash}{33bf4c961fa093ee6a297ccbd88eacc0}
      \field{labelyear}{2011}
      \field{labelmonth}{11}
      \field{datelabelsource}{}
      \field{labeltitle}{{Direct imaging of massive extrasolar planets}}
      \field{isbn}{1743921311020}
      \field{issn}{1743-9213}
      \field{journaltitle}{Proceedings of the International Astronomical Union}
      \field{month}{11}
      \field{number}{S276}
      \field{title}{{Direct imaging of massive extrasolar planets}}
      \field{volume}{6}
      \field{year}{2011}
      \field{pages}{279\bibrangedash 286}
      \verb{doi}
      \verb 10.1017/S1743921311020321
      \endverb
      \verb{file}
      \verb :C$\backslash$:/Users/Jack/AppData/Local/Mendeley Ltd./Mendeley Desktop/Downloaded/Kalas - 2011 - Direct imaging of massive extrasolar planets.pdf:pdf
      \endverb
      \verb{url}
      \verb http://www.journals.cambridge.org/abstract%5C_S1743921311020321
      \endverb
      \keyw{accretion,accretion disks,direct-imaging,fomalhaut,individual,inter-,planetary medium,planetary systems,planets and satellites,rings,stars}
    \endentry
    \entry{LEDERBERG1965}{article}{}
      \name{labelname}{1}{}{%
        {{uniquename=0,hash=c0315f39b3b390b2f7ba9a80a3eb5fbc}{Lederberg}{L\bibinitperiod}{Joshua}{J\bibinitperiod}{}{}{}{}}%
      }
      \name{author}{1}{}{%
        {{uniquename=0,hash=c0315f39b3b390b2f7ba9a80a3eb5fbc}{Lederberg}{L\bibinitperiod}{Joshua}{J\bibinitperiod}{}{}{}{}}%
      }
      \strng{namehash}{c0315f39b3b390b2f7ba9a80a3eb5fbc}
      \strng{fullhash}{c0315f39b3b390b2f7ba9a80a3eb5fbc}
      \field{sortinit}{L}
      \field{sortinithash}{c41a2b5886eeae464e75d1a9df4cd13e}
      \field{labelyear}{1965}
      \field{labelmonth}{07}
      \field{datelabelsource}{}
      \field{labeltitle}{{Signs of Life: Criterion-System of Exobiology}}
      \field{issn}{0028-0836}
      \field{journaltitle}{Nature}
      \field{month}{07}
      \field{number}{4992}
      \field{title}{{Signs of Life: Criterion-System of Exobiology}}
      \field{volume}{207}
      \field{year}{1965}
      \field{pages}{9\bibrangedash 13}
      \verb{doi}
      \verb 10.1038/207009a0
      \endverb
      \verb{file}
      \verb :C$\backslash$:/Users/Jack/AppData/Local/Mendeley Ltd./Mendeley Desktop/Downloaded/Lederberg - 1965 - Signs of Life Criterion-System of Exobiology.pdf:pdf
      \endverb
      \verb{url}
      \verb https://project2061.aaas.org/publications/rsl/online/TRADEBKS/REVS/SIGNLIFE.HTM%20http://www.nature.com/doifinder/10.1038/207009a0
      \endverb
    \endentry
    \entry{LOVELOCK1965}{article}{}
      \name{labelname}{1}{}{%
        {{uniquename=0,hash=7f61fdf9fac1cc59a116ddfa173ff055}{Lovelock}{L\bibinitperiod}{J.\bibnamedelimi E.}{J\bibinitperiod\bibinitdelim E\bibinitperiod}{}{}{}{}}%
      }
      \name{author}{1}{}{%
        {{uniquename=0,hash=7f61fdf9fac1cc59a116ddfa173ff055}{Lovelock}{L\bibinitperiod}{J.\bibnamedelimi E.}{J\bibinitperiod\bibinitdelim E\bibinitperiod}{}{}{}{}}%
      }
      \strng{namehash}{7f61fdf9fac1cc59a116ddfa173ff055}
      \strng{fullhash}{7f61fdf9fac1cc59a116ddfa173ff055}
      \field{sortinit}{L}
      \field{sortinithash}{c41a2b5886eeae464e75d1a9df4cd13e}
      \field{labelyear}{1965}
      \field{labelmonth}{08}
      \field{datelabelsource}{}
      \field{labeltitle}{{A Physical Basis for Life Detection Experiments}}
      \field{issn}{0028-0836}
      \field{journaltitle}{Nature}
      \field{month}{08}
      \field{number}{4997}
      \field{title}{{A Physical Basis for Life Detection Experiments}}
      \field{volume}{207}
      \field{year}{1965}
      \field{pages}{568\bibrangedash 570}
      \verb{doi}
      \verb 10.1038/207568a0
      \endverb
      \verb{file}
      \verb :C$\backslash$:/Users/Jack/AppData/Local/Mendeley Ltd./Mendeley Desktop/Downloaded/Lovelock - 1965 - A Physical Basis for Life Detection Experiments.pdf:pdf
      \endverb
      \verb{url}
      \verb http://www.nature.com/doifinder/10.1038/207568a0
      \endverb
    \endentry
    \entry{Madhusudhan2014}{article}{}
      \name{labelname}{4}{}{%
        {{uniquename=0,hash=281fb1a0b91393432959282227cca97e}{Madhusudhan}{M\bibinitperiod}{Nikku}{N\bibinitperiod}{}{}{}{}}%
        {{uniquename=0,hash=6be20d09e32be06ccb6fb4177f5c6f40}{Knutson}{K\bibinitperiod}{Heather}{H\bibinitperiod}{}{}{}{}}%
        {{uniquename=0,hash=f71ad7aee835df965d2c82f45cee1176}{Fortney}{F\bibinitperiod}{Jonathan}{J\bibinitperiod}{}{}{}{}}%
        {{uniquename=0,hash=a59897de1b874cea0c3a76b54217db70}{Barman}{B\bibinitperiod}{Travis}{T\bibinitperiod}{}{}{}{}}%
      }
      \name{author}{4}{}{%
        {{uniquename=0,hash=281fb1a0b91393432959282227cca97e}{Madhusudhan}{M\bibinitperiod}{Nikku}{N\bibinitperiod}{}{}{}{}}%
        {{uniquename=0,hash=6be20d09e32be06ccb6fb4177f5c6f40}{Knutson}{K\bibinitperiod}{Heather}{H\bibinitperiod}{}{}{}{}}%
        {{uniquename=0,hash=f71ad7aee835df965d2c82f45cee1176}{Fortney}{F\bibinitperiod}{Jonathan}{J\bibinitperiod}{}{}{}{}}%
        {{uniquename=0,hash=a59897de1b874cea0c3a76b54217db70}{Barman}{B\bibinitperiod}{Travis}{T\bibinitperiod}{}{}{}{}}%
      }
      \strng{namehash}{39515fb143bc38198236bacbf7942a1b}
      \strng{fullhash}{dd8e426cfa7018d6c9dcbd82380623d9}
      \field{sortinit}{M}
      \field{sortinithash}{4203d16473bc940d4ac780773cb7c5dd}
      \field{labelyear}{2014}
      \field{labelmonth}{02}
      \field{datelabelsource}{}
      \field{labeltitle}{{Exoplanetary Atmospheres}}
      \field{annotation}{Pre-print.}
      \field{eprinttype}{arXiv}
      \field{month}{02}
      \field{title}{{Exoplanetary Atmospheres}}
      \field{year}{2014}
      \verb{eprint}
      \verb 1402.1169
      \endverb
      \verb{file}
      \verb :C$\backslash$:/Users/Jack/AppData/Local/Mendeley Ltd./Mendeley Desktop/Downloaded/Madhusudhan et al. - 2014 - Exoplanetary Atmospheres.pdf:pdf
      \endverb
      \verb{url}
      \verb http://arxiv.org/abs/1402.1169v1
      \endverb
    \endentry
    \entry{Males2014}{article}{}
      \name{labelname}{19}{}{%
        {{uniquename=0,hash=0f981e930b7f3558a668e82f3fed0ddf}{Males}{M\bibinitperiod}{Jared\bibnamedelima R.}{J\bibinitperiod\bibinitdelim R\bibinitperiod}{}{}{}{}}%
        {{uniquename=0,hash=03ac29dc7c2982d2ef020fd8bf3f7aca}{Close}{C\bibinitperiod}{Laird\bibnamedelima M.}{L\bibinitperiod\bibinitdelim M\bibinitperiod}{}{}{}{}}%
        {{uniquename=0,hash=fd3bb5cec3940ae16f7c0967741a8852}{Guyon}{G\bibinitperiod}{Olivier}{O\bibinitperiod}{}{}{}{}}%
        {{uniquename=0,hash=77a3059e797c175db9a2c565d9968176}{Morzinski}{M\bibinitperiod}{Katie}{K\bibinitperiod}{}{}{}{}}%
        {{uniquename=0,hash=2dab7b4f6cafd66805354f3f303f4335}{Puglisi}{P\bibinitperiod}{Alfio}{A\bibinitperiod}{}{}{}{}}%
        {{uniquename=0,hash=2fae1380bafc2f2a2f74fe79b03bb189}{Hinz}{H\bibinitperiod}{Philip}{P\bibinitperiod}{}{}{}{}}%
        {{uniquename=0,hash=57cb800ebde8f9025a60a74227c22410}{Follette}{F\bibinitperiod}{Katherine\bibnamedelima B.}{K\bibinitperiod\bibinitdelim B\bibinitperiod}{}{}{}{}}%
        {{uniquename=0,hash=9667a6c8b238b3ae27a69d83f57e4888}{Monnier}{M\bibinitperiod}{John\bibnamedelima D.}{J\bibinitperiod\bibinitdelim D\bibinitperiod}{}{}{}{}}%
        {{uniquename=0,hash=34e4452a957015ce8b0e9f286ad81f85}{Tolls}{T\bibinitperiod}{Volker}{V\bibinitperiod}{}{}{}{}}%
        {{uniquename=0,hash=d942f19d8889b54ea09533e0135c027b}{Rodigas}{R\bibinitperiod}{Timothy\bibnamedelima J.}{T\bibinitperiod\bibinitdelim J\bibinitperiod}{}{}{}{}}%
        {{uniquename=0,hash=93a912ba45b1d352381950b7ae520782}{Weinberger}{W\bibinitperiod}{Alycia}{A\bibinitperiod}{}{}{}{}}%
        {{uniquename=0,hash=c2aeba27b35b012c1962728c08e6af7f}{Boss}{B\bibinitperiod}{Alan}{A\bibinitperiod}{}{}{}{}}%
        {{uniquename=0,hash=52b2807a173d7c7a267505f03e084cb9}{Kopon}{K\bibinitperiod}{Derek}{D\bibinitperiod}{}{}{}{}}%
        {{uniquename=0,hash=ccb00c1801b2594762a2bc9781ec3d59}{Wu}{W\bibinitperiod}{Ya-lin}{Y\bibinithyphendelim l\bibinitperiod}{}{}{}{}}%
        {{uniquename=0,hash=9f8d67a2bd07335d13e368edbf4757ef}{Esposito}{E\bibinitperiod}{Simone}{S\bibinitperiod}{}{}{}{}}%
        {{uniquename=0,hash=aa7ece8d7901e069f281654da33ad4eb}{Riccardi}{R\bibinitperiod}{Armando}{A\bibinitperiod}{}{}{}{}}%
        {{uniquename=0,hash=013252dd089a6da4a89630f09ca35446}{Xompero}{X\bibinitperiod}{Marco}{M\bibinitperiod}{}{}{}{}}%
        {{uniquename=0,hash=66bd8ad56d3ad2b5dd40fb3b9c5d2d15}{Briguglio}{B\bibinitperiod}{Runa}{R\bibinitperiod}{}{}{}{}}%
        {{uniquename=0,hash=6a51bbc0a1f4eecc69a18e486b4c6905}{Pinna}{P\bibinitperiod}{Enrico}{E\bibinitperiod}{}{}{}{}}%
      }
      \name{author}{19}{}{%
        {{uniquename=0,hash=0f981e930b7f3558a668e82f3fed0ddf}{Males}{M\bibinitperiod}{Jared\bibnamedelima R.}{J\bibinitperiod\bibinitdelim R\bibinitperiod}{}{}{}{}}%
        {{uniquename=0,hash=03ac29dc7c2982d2ef020fd8bf3f7aca}{Close}{C\bibinitperiod}{Laird\bibnamedelima M.}{L\bibinitperiod\bibinitdelim M\bibinitperiod}{}{}{}{}}%
        {{uniquename=0,hash=fd3bb5cec3940ae16f7c0967741a8852}{Guyon}{G\bibinitperiod}{Olivier}{O\bibinitperiod}{}{}{}{}}%
        {{uniquename=0,hash=77a3059e797c175db9a2c565d9968176}{Morzinski}{M\bibinitperiod}{Katie}{K\bibinitperiod}{}{}{}{}}%
        {{uniquename=0,hash=2dab7b4f6cafd66805354f3f303f4335}{Puglisi}{P\bibinitperiod}{Alfio}{A\bibinitperiod}{}{}{}{}}%
        {{uniquename=0,hash=2fae1380bafc2f2a2f74fe79b03bb189}{Hinz}{H\bibinitperiod}{Philip}{P\bibinitperiod}{}{}{}{}}%
        {{uniquename=0,hash=57cb800ebde8f9025a60a74227c22410}{Follette}{F\bibinitperiod}{Katherine\bibnamedelima B.}{K\bibinitperiod\bibinitdelim B\bibinitperiod}{}{}{}{}}%
        {{uniquename=0,hash=9667a6c8b238b3ae27a69d83f57e4888}{Monnier}{M\bibinitperiod}{John\bibnamedelima D.}{J\bibinitperiod\bibinitdelim D\bibinitperiod}{}{}{}{}}%
        {{uniquename=0,hash=34e4452a957015ce8b0e9f286ad81f85}{Tolls}{T\bibinitperiod}{Volker}{V\bibinitperiod}{}{}{}{}}%
        {{uniquename=0,hash=d942f19d8889b54ea09533e0135c027b}{Rodigas}{R\bibinitperiod}{Timothy\bibnamedelima J.}{T\bibinitperiod\bibinitdelim J\bibinitperiod}{}{}{}{}}%
        {{uniquename=0,hash=93a912ba45b1d352381950b7ae520782}{Weinberger}{W\bibinitperiod}{Alycia}{A\bibinitperiod}{}{}{}{}}%
        {{uniquename=0,hash=c2aeba27b35b012c1962728c08e6af7f}{Boss}{B\bibinitperiod}{Alan}{A\bibinitperiod}{}{}{}{}}%
        {{uniquename=0,hash=52b2807a173d7c7a267505f03e084cb9}{Kopon}{K\bibinitperiod}{Derek}{D\bibinitperiod}{}{}{}{}}%
        {{uniquename=0,hash=ccb00c1801b2594762a2bc9781ec3d59}{Wu}{W\bibinitperiod}{Ya-lin}{Y\bibinithyphendelim l\bibinitperiod}{}{}{}{}}%
        {{uniquename=0,hash=9f8d67a2bd07335d13e368edbf4757ef}{Esposito}{E\bibinitperiod}{Simone}{S\bibinitperiod}{}{}{}{}}%
        {{uniquename=0,hash=aa7ece8d7901e069f281654da33ad4eb}{Riccardi}{R\bibinitperiod}{Armando}{A\bibinitperiod}{}{}{}{}}%
        {{uniquename=0,hash=013252dd089a6da4a89630f09ca35446}{Xompero}{X\bibinitperiod}{Marco}{M\bibinitperiod}{}{}{}{}}%
        {{uniquename=0,hash=66bd8ad56d3ad2b5dd40fb3b9c5d2d15}{Briguglio}{B\bibinitperiod}{Runa}{R\bibinitperiod}{}{}{}{}}%
        {{uniquename=0,hash=6a51bbc0a1f4eecc69a18e486b4c6905}{Pinna}{P\bibinitperiod}{Enrico}{E\bibinitperiod}{}{}{}{}}%
      }
      \name{editor}{3}{}{%
        {{hash=7cfb20f2af7dc40822b82b6e06b80cc2}{Marchetti}{M\bibinitperiod}{Enrico}{E\bibinitperiod}{}{}{}{}}%
        {{hash=03ac29dc7c2982d2ef020fd8bf3f7aca}{Close}{C\bibinitperiod}{Laird\bibnamedelima M.}{L\bibinitperiod\bibinitdelim M\bibinitperiod}{}{}{}{}}%
        {{hash=ea417d80e94375f5fbb373e599960451}{V\'{e}ran}{V\bibinitperiod}{Jean-Pierre}{J\bibinithyphendelim P\bibinitperiod}{}{}{}{}}%
      }
      \strng{namehash}{5a7ee22428c22d1a82731a5a066aa055}
      \strng{fullhash}{419ee43ac32b6597ea94ebc518edc1d6}
      \field{sortinit}{M}
      \field{sortinithash}{4203d16473bc940d4ac780773cb7c5dd}
      \field{labelyear}{2014}
      \field{labelmonth}{07}
      \field{datelabelsource}{}
      \field{labeltitle}{{Direct imaging of exoplanets in the habitable zone with adaptive optics}}
      \field{abstract}{One of the primary goals of exoplanet science is to find and characterize habitable planets, and direct imaging will play a key role in this effort. Though imaging a true Earth analog is likely out of reach from the ground, the coming generation of giant telescopes will find and characterize many planets in and near the habitable zones (HZs) of nearby stars. Radial velocity and transit searches indicate that such planets are common, but imaging them will require achieving extreme contrasts at very small angular separations, posing many challenges for adaptive optics (AO) system design. Giant planets in the HZ may even be within reach with the latest generation of high-contrast imagers for a handful of very nearby stars. Here we will review the definition of the HZ, and the characteristics of detectable planets there. We then review some of the ways that direct imaging in the HZ will be different from the typical exoplanet imaging survey today. Finally, we present preliminary results from our observations of the HZ of $\alpha$ Centauri A with the Magellan AO system's VisAO and Clio2 cameras.}
      \field{journaltitle}{Proceedings of the SPIE}
      \field{month}{07}
      \field{title}{{Direct imaging of exoplanets in the habitable zone with adaptive optics}}
      \field{volume}{9148}
      \field{year}{2014}
      \field{pages}{13}
      \verb{doi}
      \verb 10.1117/12.2057135
      \endverb
      \verb{file}
      \verb :C$\backslash$:/Users/Jack/AppData/Local/Mendeley Ltd./Mendeley Desktop/Downloaded/Males et al. - 2014 - Direct imaging of exoplanets in the habitable zone with adaptive optics.pdf:pdf
      \endverb
      \verb{url}
      \verb http://proceedings.spiedigitallibrary.org/proceeding.aspx?doi=10.1117/12.2057135
      \endverb
      \keyw{adaptive optics,direct-imaging,extrasolar planets,habitable zone,magellan}
    \endentry
    \entry{McKay2014}{article}{}
      \name{labelname}{1}{}{%
        {{uniquename=0,hash=1528eb2650179fc9e0239aec6472f670}{McKay}{M\bibinitperiod}{Christopher\bibnamedelima P.}{C\bibinitperiod\bibinitdelim P\bibinitperiod}{}{}{}{}}%
      }
      \name{author}{1}{}{%
        {{uniquename=0,hash=1528eb2650179fc9e0239aec6472f670}{McKay}{M\bibinitperiod}{Christopher\bibnamedelima P.}{C\bibinitperiod\bibinitdelim P\bibinitperiod}{}{}{}{}}%
      }
      \list{language}{1}{%
        {en}%
      }
      \strng{namehash}{1528eb2650179fc9e0239aec6472f670}
      \strng{fullhash}{1528eb2650179fc9e0239aec6472f670}
      \field{sortinit}{M}
      \field{sortinithash}{4203d16473bc940d4ac780773cb7c5dd}
      \field{labelyear}{2014}
      \field{labelmonth}{09}
      \field{datelabelsource}{}
      \field{labeltitle}{{Requirements and limits for life in the context of exoplanets}}
      \field{abstract}{The requirements for life on Earth, its elemental composition, and its environmental limits provide a way to assess the habitability of exoplanets. Temperature is key both because of its influence on liquid water and because it can be directly estimated from orbital and climate models of exoplanetary systems. Life can grow and reproduce at temperatures as low as \x{fffd}\x{fffd}\x{fffd}15 \x{fffd}\x{fffd}C, and as high as 122 \x{fffd}\x{fffd}C. Studies of life in extreme deserts show that on a dry world, even a small amount of rain, fog, snow, and even atmospheric humidity can be adequate for photosynthetic production producing a small but detectable microbial community. Life is able to use light at levels less than 10\x{fffd}\x{fffd}\x{fffd}5 of the solar flux at Earth. UV or ionizing radiation can be tolerated by many microorganisms at very high levels and is unlikely to be life limiting on an exoplanet. Biologically available nitrogen may limit habitability. Levels of O2 over a few percent on an exoplanet would be consistent with the presence of multicellular organisms and high levels of O2 on Earth-like worlds indicate oxygenic photosynthesis. Other factors such as pH and salinity are likely to vary and not limit life over an entire planet or moon.}
      \field{issn}{0027-8424, 1091-6490}
      \field{journaltitle}{Proceedings of the National Academy of Sciences}
      \field{month}{09}
      \field{number}{35}
      \field{title}{{Requirements and limits for life in the context of exoplanets}}
      \field{volume}{111}
      \field{year}{2014}
      \field{pages}{12628\bibrangedash 12633}
      \verb{doi}
      \verb 10.1073/pnas.1304212111
      \endverb
      \verb{file}
      \verb :C$\backslash$:/Users/Jack/AppData/Local/Mendeley Ltd./Mendeley Desktop/Downloaded/McKay - 2014 - Requirements and limits for life in the context of exoplanets.pdf:pdf;:C$\backslash$:/Users/Jack/AppData/Local/Mendeley Ltd./Mendeley Desktop/Downloaded/McKay - 2014 - Requirements and limits for life in the context of exoplanets(2).pdf:pdf
      \endverb
      \verb{url}
      \verb http://www.pnas.org/content/111/35/12628%20http://www.ncbi.nlm.nih.gov/pubmed/24927538%20http://www.pnas.org/content/111/35/12628.full.pdf
      \endverb
      \keyw{Mars,astrobiology,extremophiles}
    \endentry
    \entry{Oppenheimer2009}{article}{}
      \name{labelname}{2}{}{%
        {{uniquename=0,hash=dc7467eb0f79f2f164db04ccfd1add68}{Oppenheimer}{O\bibinitperiod}{Ben\bibnamedelima R.}{B\bibinitperiod\bibinitdelim R\bibinitperiod}{}{}{}{}}%
        {{uniquename=0,hash=8e37b3fb583532de983bea667ead5d91}{Hinkley}{H\bibinitperiod}{Sasha}{S\bibinitperiod}{}{}{}{}}%
      }
      \name{author}{2}{}{%
        {{uniquename=0,hash=dc7467eb0f79f2f164db04ccfd1add68}{Oppenheimer}{O\bibinitperiod}{Ben\bibnamedelima R.}{B\bibinitperiod\bibinitdelim R\bibinitperiod}{}{}{}{}}%
        {{uniquename=0,hash=8e37b3fb583532de983bea667ead5d91}{Hinkley}{H\bibinitperiod}{Sasha}{S\bibinitperiod}{}{}{}{}}%
      }
      \strng{namehash}{d922f35911a30ff7cc89172b9aa3be4a}
      \strng{fullhash}{d922f35911a30ff7cc89172b9aa3be4a}
      \field{sortinit}{O}
      \field{sortinithash}{59512cfd31be1dcef4def024230bdc1d}
      \field{labelyear}{2009}
      \field{labelmonth}{09}
      \field{datelabelsource}{}
      \field{labeltitle}{{High-Contrast Observations in Optical and Infrared Astronomy}}
      \field{issn}{0066-4146}
      \field{journaltitle}{Annual Review of Astronomy and Astrophysics}
      \field{month}{09}
      \field{number}{1}
      \field{title}{{High-Contrast Observations in Optical and Infrared Astronomy}}
      \field{volume}{47}
      \field{year}{2009}
      \field{pages}{253\bibrangedash 289}
      \verb{doi}
      \verb 10.1146/annurev-astro-082708-101717
      \endverb
      \verb{file}
      \verb :C$\backslash$:/Users/Jack/AppData/Local/Mendeley Ltd./Mendeley Desktop/Downloaded/Oppenheimer, Hinkley - 2009 - High-Contrast Observations in Optical and Infrared Astronomy.pdf:pdf
      \endverb
      \verb{url}
      \verb http://www.annualreviews.org/doi/abs/10.1146/annurev-astro-082708-101717
      \endverb
      \keyw{adaptive optics,brown dwarfs,circumstellar disks,coronagraphy,direct-imaging,exoplanets,interferometry}
    \endentry
    \entry{Seager2000}{article}{}
      \name{labelname}{2}{}{%
        {{uniquename=2,hash=12a79201dae5e9c6839da790d1bf905b}{Seager}{S\bibinitperiod}{S.}{S\bibinitperiod}{}{}{}{}}%
        {{uniquename=0,hash=8753609d1095eaf1379573ada47a8bc5}{Sasselov}{S\bibinitperiod}{D.\bibnamedelimi D.}{D\bibinitperiod\bibinitdelim D\bibinitperiod}{}{}{}{}}%
      }
      \name{author}{2}{}{%
        {{uniquename=2,hash=12a79201dae5e9c6839da790d1bf905b}{Seager}{S\bibinitperiod}{S.}{S\bibinitperiod}{}{}{}{}}%
        {{uniquename=0,hash=8753609d1095eaf1379573ada47a8bc5}{Sasselov}{S\bibinitperiod}{D.\bibnamedelimi D.}{D\bibinitperiod\bibinitdelim D\bibinitperiod}{}{}{}{}}%
      }
      \strng{namehash}{9515ae24fdd357ffb6dc8625849a0d56}
      \strng{fullhash}{9515ae24fdd357ffb6dc8625849a0d56}
      \field{sortinit}{S}
      \field{sortinithash}{4125bb4c3a0eb3eaee3ea6da32eb70c8}
      \field{labelyear}{2000}
      \field{labelmonth}{07}
      \field{datelabelsource}{}
      \field{labeltitle}{{Theoretical Transmission Spectra during Extrasolar Giant Planet Transits}}
      \field{issn}{0004-637X}
      \field{journaltitle}{The Astrophysical Journal}
      \field{month}{07}
      \field{number}{2}
      \field{title}{{Theoretical Transmission Spectra during Extrasolar Giant Planet Transits}}
      \field{volume}{537}
      \field{year}{2000}
      \field{pages}{916\bibrangedash 921}
      \verb{doi}
      \verb 10.1086/309088
      \endverb
      \verb{url}
      \verb http://stacks.iop.org/0004-637X/537/i=2/a=916
      \endverb
    \endentry
    \entry{Seager2014}{article}{}
      \name{labelname}{1}{}{%
        {{uniquename=2,hash=85533eec9f4b1ee168bba3d0a0607fb5}{Seager}{S\bibinitperiod}{Sara}{S\bibinitperiod}{}{}{}{}}%
      }
      \name{author}{1}{}{%
        {{uniquename=2,hash=85533eec9f4b1ee168bba3d0a0607fb5}{Seager}{S\bibinitperiod}{Sara}{S\bibinitperiod}{}{}{}{}}%
      }
      \list{language}{1}{%
        {en}%
      }
      \strng{namehash}{85533eec9f4b1ee168bba3d0a0607fb5}
      \strng{fullhash}{85533eec9f4b1ee168bba3d0a0607fb5}
      \field{sortinit}{S}
      \field{sortinithash}{4125bb4c3a0eb3eaee3ea6da32eb70c8}
      \field{labelyear}{2014}
      \field{labelmonth}{09}
      \field{datelabelsource}{}
      \field{labeltitle}{{The future of spectroscopic life detection on exoplanets}}
      \field{abstract}{The discovery and characterization of exoplanets have the potential to offer the world one of the most impactful findings ever in the history of astronomy\x{fffd}\x{fffd}\x{fffd}the identification of life beyond Earth. Life can be inferred by the presence of atmospheric biosignature gases\x{fffd}\x{fffd}\x{fffd}gases produced by life that can accumulate to detectable levels in an exoplanet atmosphere. Detection will be made by remote sensing by sophisticated space telescopes. The conviction that biosignature gases will actually be detected in the future is moderated by lessons learned from the dozens of exoplanet atmospheres studied in last decade, namely the difficulty in robustly identifying molecules, the possible interference of clouds, and the permanent limitations from a spectrum of spatially unresolved and globally mixed gases without direct surface observations. The vision for the path to assess the presence of life beyond Earth is being established.}
      \field{issn}{0027-8424, 1091-6490}
      \field{journaltitle}{Proceedings of the National Academy of Sciences}
      \field{month}{09}
      \field{number}{35}
      \field{title}{{The future of spectroscopic life detection on exoplanets}}
      \field{volume}{111}
      \field{year}{2014}
      \field{pages}{12634\bibrangedash 12640}
      \verb{doi}
      \verb 10.1073/pnas.1304213111
      \endverb
      \verb{file}
      \verb :C$\backslash$:/Users/Jack/AppData/Local/Mendeley Ltd./Mendeley Desktop/Downloaded/Seager - 2014 - The future of spectroscopic life detection on exoplanets.pdf:pdf
      \endverb
      \verb{url}
      \verb http://www.pnas.org/content/111/35/12634%20http://www.ncbi.nlm.nih.gov/pubmed/25092345%20http://www.pnas.org/content/111/35/12634.full.pdf
      \endverb
      \keyw{astrobiology,spectroscopy,summary}
    \endentry
    \entry{Spiegel2014}{article}{}
      \name{labelname}{3}{}{%
        {{uniquename=0,hash=959e537f61e5b41682501097682e76fe}{Spiegel}{S\bibinitperiod}{David\bibnamedelima S.}{D\bibinitperiod\bibinitdelim S\bibinitperiod}{}{}{}{}}%
        {{uniquename=0,hash=e7628e0854862a832a7eec4a525e183a}{Fortney}{F\bibinitperiod}{Jonathan\bibnamedelima J.}{J\bibinitperiod\bibinitdelim J\bibinitperiod}{}{}{}{}}%
        {{uniquename=0,hash=9c6ea291ab4461f7e380b692d294a58f}{Sotin}{S\bibinitperiod}{Christophe}{C\bibinitperiod}{}{}{}{}}%
      }
      \name{author}{3}{}{%
        {{uniquename=0,hash=959e537f61e5b41682501097682e76fe}{Spiegel}{S\bibinitperiod}{David\bibnamedelima S.}{D\bibinitperiod\bibinitdelim S\bibinitperiod}{}{}{}{}}%
        {{uniquename=0,hash=e7628e0854862a832a7eec4a525e183a}{Fortney}{F\bibinitperiod}{Jonathan\bibnamedelima J.}{J\bibinitperiod\bibinitdelim J\bibinitperiod}{}{}{}{}}%
        {{uniquename=0,hash=9c6ea291ab4461f7e380b692d294a58f}{Sotin}{S\bibinitperiod}{Christophe}{C\bibinitperiod}{}{}{}{}}%
      }
      \list{language}{1}{%
        {en}%
      }
      \strng{namehash}{1d45903269f1d755e4beb27ab4207748}
      \strng{fullhash}{1d45903269f1d755e4beb27ab4207748}
      \field{sortinit}{S}
      \field{sortinithash}{4125bb4c3a0eb3eaee3ea6da32eb70c8}
      \field{labelyear}{2014}
      \field{labelmonth}{09}
      \field{datelabelsource}{}
      \field{labeltitle}{{Structure of exoplanets}}
      \field{abstract}{The hundreds of exoplanets that have been discovered in the past two decades offer a new perspective on planetary structure. Instead of being the archetypal examples of planets, those of our solar system are merely possible outcomes of planetary system formation and evolution, and conceivably not even especially common outcomes (although this remains an open question). Here, we review the diverse range of interior structures that are both known and speculated to exist in exoplanetary systems\x{fffd}\x{fffd}\x{fffd}from mostly degenerate objects that are more than 10\x{fffd}\x{fffd} as massive as Jupiter, to intermediate-mass Neptune-like objects with large cores and moderate hydrogen/helium envelopes, to rocky objects with roughly the mass of Earth.}
      \field{issn}{0027-8424, 1091-6490}
      \field{journaltitle}{Proceedings of the National Academy of Sciences}
      \field{month}{09}
      \field{number}{35}
      \field{title}{{Structure of exoplanets}}
      \field{volume}{111}
      \field{year}{2014}
      \field{pages}{12622\bibrangedash 12627}
      \verb{doi}
      \verb 10.1073/pnas.1304206111
      \endverb
      \verb{file}
      \verb :C$\backslash$:/Users/Jack/AppData/Local/Mendeley Ltd./Mendeley Desktop/Downloaded/Spiegel, Fortney, Sotin - 2014 - Structure of exoplanets.pdf:pdf;:C$\backslash$:/Users/Jack/AppData/Local/Mendeley Ltd./Mendeley Desktop/Downloaded/Spiegel, Fortney, Sotin - 2014 - Structure of exoplanets(2).pdf:pdf
      \endverb
      \verb{url}
      \verb http://www.pnas.org/content/111/35/12622%20http://www.ncbi.nlm.nih.gov/pubmed/24379369%20http://www.pnas.org/content/111/35/12622.full.pdf
      \endverb
      \keyw{gas giants,hot Jupiters,super-Earths}
    \endentry
    \entry{Wolszczan1992}{article}{}
      \name{labelname}{2}{}{%
        {{uniquename=0,hash=1dfa39e31183381cc7a464e2fb206472}{Wolszczan}{W\bibinitperiod}{A.}{A\bibinitperiod}{}{}{}{}}%
        {{uniquename=0,hash=b38beb0a43c7285c9678025f46dba227}{Frail}{F\bibinitperiod}{D.\bibnamedelimi A.}{D\bibinitperiod\bibinitdelim A\bibinitperiod}{}{}{}{}}%
      }
      \name{author}{2}{}{%
        {{uniquename=0,hash=1dfa39e31183381cc7a464e2fb206472}{Wolszczan}{W\bibinitperiod}{A.}{A\bibinitperiod}{}{}{}{}}%
        {{uniquename=0,hash=b38beb0a43c7285c9678025f46dba227}{Frail}{F\bibinitperiod}{D.\bibnamedelimi A.}{D\bibinitperiod\bibinitdelim A\bibinitperiod}{}{}{}{}}%
      }
      \strng{namehash}{1687fff712e910927b52f2fca4edae61}
      \strng{fullhash}{1687fff712e910927b52f2fca4edae61}
      \field{sortinit}{W}
      \field{sortinithash}{e560dae78a85a037c3da51c61467873a}
      \field{labelyear}{1992}
      \field{labelmonth}{01}
      \field{datelabelsource}{}
      \field{labeltitle}{{A planetary system around the millisecond pulsar PSR1257 + 12}}
      \field{issn}{0028-0836}
      \field{journaltitle}{Nature}
      \field{month}{01}
      \field{number}{6356}
      \field{title}{{A planetary system around the millisecond pulsar PSR1257 + 12}}
      \field{volume}{355}
      \field{year}{1992}
      \field{pages}{145\bibrangedash 147}
      \verb{doi}
      \verb 10.1038/355145a0
      \endverb
      \verb{url}
      \verb http://www.nature.com/doifinder/10.1038/355145a0
      \endverb
      \keyw{first-exoplanet}
    \endentry
  \endsortlist
\endrefsection
\endinput

